%!PS-Adobe-3.0 EPSF-3.0
%%Title: full.eps
%%Creator: XCircuit v3.9 rev26
%%CreationDate: Wed Dec 31 10:52:40 2014
%%Pages: 1
%%BoundingBox: 68 68 679 737
%%DocumentNeededResources: font Helvetica Times-Roman Times-RomanISO 
%%+ font HelveticaISO Symbol 
%%EndComments
%%BeginProlog
%
%  PostScript prolog for output from xcircuit
%  Version: 3.8
%
%  Electrical circuit (and otherwise general) drawing program
%
%  Written by Tim Edwards 8/5/93--11/1/10  (tim.edwards@multigig.com)
%  The Johns Hopkins University (1993-2004)
%  MultiGiG, Inc. (2004-2012)
%
%%BeginResource: procset XCIRCproc 3.8 0
%
% supporting definitions --- these are the primary xcircuit types.

/XCIRCsave save def
/topmat matrix currentmatrix def

/fontslant { /slant exch def [1 0 slant 1 0 0] 
    exch findfont exch makefont dup length dict /ndict exch def
    { 1 index /FID ne { ndict 3 1 roll put } { pop pop } ifelse } forall
    ndict definefont pop} def
/ul { dup type /stringtype eq showflag 1 eq and { gsave 
   currentpoint topmat setmatrix 0 0 moveto 2 index stringwidth pop (_)
   false charpath flattenpath pathbbox grestore exch pop 1 index
   sub setlinewidth exch pop currentpoint 3 -1 roll add moveto 0
   rlineto stroke moveto } if } def
/ol { dup type /stringtype eq showflag 1 eq and { gsave gsave
   currentpoint topmat setmatrix 2 index stringwidth pop 3 index
   true charpath flattenpath pathbbox grestore exch pop
   exch pop topmat setmatrix (_) true charpath pathbbox grestore
   exch pop 1 index sub setlinewidth exch pop currentpoint
   exch 4 1 roll exch sub add moveto pop 0 rlineto stroke
   moveto } if } def
/stW { gsave currentpoint newpath moveto true charpath flattenpath
	pathbbox pop exch pop sub grestore } def
/Ts {mark Tabs aload pop counttomark 1 add array astore /Tabs exch def Tabs
	0 currentpoint pop put} def
/Tbn {mark Tabs aload pop counttomark dup 2 add 1 roll cleartomark 1 sub} def
/Tb { 0 1 Tbn {Tabs exch get dup currentpoint pop lt
	{currentpoint exch pop moveto exit} {pop} ifelse } for } def
/Tf { Tbn -1 0 {Tabs exch get dup currentpoint pop gt
	{currentpoint exch pop moveto exit} {pop} ifelse } for } def
/qS { (aa) stW (a a) stW sub 4 div 0 Kn } def
/hS { qS qS } def
/pspc 0 def
/cf0 { scalefont setfont } bind def
/Kn { dup kY add /kY exch def rmoveto } bind def
/ss { /fscale fscale 0.67 mul def currentfont 0.67 cf0 0 fscale0 fscale mul
	0.33 mul neg Kn} def
/Ss { /fscale fscale 0.67 mul def currentfont 0.67 cf0 0 fscale0 fscale mul
	0.67 mul Kn } def
/ns { 0 kY neg Kn /kY 0 def /fscale 1.0 def xfont0 1.0 cf0 } def
/MR { /twidth exch def } def
/CR { ns 0 /Bline Bline fscale0 neg add def Bline moveto } def
/cf { dup type /realtype ne {1.0} if exch findfont exch kY 0 eq
	{ 40 mul dup /fscale0 exch def cf0 /xfont0 currentfont def}
	{fscale0 mul fscale mul cf0} ifelse } def
/ctmk { counttomark dup 2 add -1 roll pop } bind def
/label { gsave translate 0 0 moveto dup scale neg
	/rotval exch def /twidth 100000 def /just exch def just 384 and
	0 gt {/mshow {pop} def} {/mshow {show} def} ifelse just 16 and 0
	gt {gsave rotval rotate 0 1 dtransform gsave pagemat setmatrix
	idtransform exch grestore 1 0 dtransform gsave pagemat setmatrix
	idtransform exch grestore dup abs 1e-9 lt {pop mul 0 gt} {3 1 roll
	pop pop 0 lt} ifelse grestore {-1 /rotval rotval neg def /just just
	dup 3 and 1 ne {3 xor} if def} {1} ifelse exch -1e-9 lt {-1 /rotval
	rotval neg def /just just dup 12 and 4 ne {12 xor} if def} {1}
	ifelse scale } if /showflag 0 def /fspc pspc def /Bline 0 def /Tabs
	0 array def /fscale 1.0 def /kY 0 def gsave dup 1 add copy dup
	1 0 dtransform exch atan rotate {exch dup type /stringtype eq {gsave
        dup gsave newpath 0 0 moveto true charpath flattenpath pathbbox pop
	exch pop exch pop grestore currentpoint pop add twidth
	ge {grestore CR exch 1 add dup 2 add {CR} exch 1 roll exch} {grestore}
	ifelse true charpath flattenpath} {dup type /arraytype eq {exec} {12
	string cvs true charpath flattenpath} ifelse} ifelse} repeat exch pop
	pathbbox grestore 3 -1 roll pop 3 1 roll just 1 and 0 gt {just 2 and
	0 gt {exch pop neg fspc sub} {exch sub 0.5 mul neg} ifelse} {pop neg
	fspc add} ifelse exch Bline exch just 4 and 0 gt {just 8 and 0 gt
	{exch pop neg fspc sub} {add 0.5 mul neg} ifelse} {pop neg fspc add}
	ifelse rotval rotate Kn currentpoint translate /showflag 1 def /Bline
	0 def /Tabs 0 array def /fscale 1.0 def /kY 0 def {dup type
	/stringtype eq {mshow} {dup type /arraytype eq {exec} {12 string cvs
	mshow} ifelse} ifelse} repeat grestore endclip} def
/pinlabel { 4 index 32 and 0 ne hlevel 0 eq or { /pspc 10 def label
	/pspc 0 def } { pop pop pop pop pop {pop} repeat } ifelse } def
/pinglobal { pinlabel } def
/infolabel { pinlabel } def
/graphic { gsave 4 index cvx exec /DataSource get resetfile translate 0 0
	moveto neg rotate dup scale cvx exec image grestore endclip} def

/scb { setrgbcolor } bind def  /sce { defColor aload pop scb } bind def
/cRedef {/defColor currentcolor 3 array astore def} def
/begingate {dup type /dicttype ne {1 dict} if begin	% default params
	dup type /dicttype ne {1 dict} if begin		% instanced params
	/hlevel hlevel 1 add def /defColor currentcolor sce 3 array astore
	def gsave sce translate 0 0 moveto neg rotate dup type /nametype
	eq not { dup abs currentlinewidth exch div setlinewidth } { pop }
	ifelse dup abs scale clipped 1 and 1 eq {/clipped clipped 1 add def}
	if} bind def
/endgate { /hlevel hlevel 1 sub def grestore defColor aload pop cRedef
	scb end end endclip} bind def

/hlevel 0 def
/endclip {clipped 1 and 1 eq {grestore /clipped clipped 1 sub def} if} def
/tmpa [1 0 0 1 0 0] def
/gar {8 8 true tmpa {<c0 c0 00 00 0c 0c 00 00>} imagemask} bind
{8 8 true tmpa {<30 70 60 02 03 07 06 20>} imagemask} bind
{8 8 true tmpa {<0c 1e 1e 0c c0 e1 e1 c0>} imagemask} bind
{8 8 true tmpa {<0f 0f 0f 0f f0 f0 f0 f0>} imagemask} bind
{8 8 true tmpa {<3f f3 e1 e1 f3 3f 1e 1e>} imagemask} bind
{8 8 true tmpa {<df cf 8f 9f fd fc f8 f9>} imagemask} bind
{8 8 true tmpa {<ff 3f 3f ff ff f3 f3 ff>} imagemask} bind 7 array astore def
/ppaint { gsave clip tmpa dup setmatrix pathbbox neg exch neg 4 2 roll
  neg 4 -1 roll 2 copy gt {exch} if 8 div ceiling 8 mul 4 2 roll neg 2 copy
  gt {exch} if 8 div ceiling 8 mul 3 -1 roll -8 5 -1 roll
  { 3 index exch 5 exch put dup -8 3 index { 3 index
  exch 4 exch put 3 index exec } for } for pop pop pop pop grestore } bind def
/setstyles {
  currentlinewidth mul setlinewidth /style exch def style 2048 and 0 gt
  clipped 1 and 0 eq and {clip newpath /clipped clipped 1 add def} {
  style 1 and 0 gt not {closepath} if
  style 1024 and 0 gt {2 setlinecap 0 setlinejoin} if
  style 2 and 0 gt {currentlinewidth 4 mul dup 2 array astore 0 setdash} if
  style 4 and 0 gt {0.5 currentlinewidth 4 mul 2 array astore 0 setdash} if
  gsave style 16 and 0 gt { style 224 and -5 bitshift style 256 and 0 gt {
  7 exch sub 8 div dup 1 exch sub currentrgbcolor 3 array astore
  {3 copy mul add 4 1 roll pop} forall pop pop setrgbcolor eofill}
  {dup 7 lt {gar exch get ppaint} {pop eofill} ifelse} ifelse}
  {style 256 and 0 gt {1 setgray eofill} if} ifelse grestore style 8 and 0 gt 
  style 512 eq or {newpath} {stroke} ifelse grestore endclip} ifelse} def     

/addtoy {exch dup dup 2 mul 3 add 1 roll -1 1 { 4 1 roll dup 4 1 roll add
	4 -1 roll 2 mul 1 add index 2 mul 2 add 2 roll} for pop} def
/addtoy1 {1 exch addtoy pop} def
/addtoy3 {3 exch addtoy pop} def
/addtoy4 {4 exch addtoy pop} def
/addtox {exch dup dup 2 mul 3 add 1 roll -1 1 { 4 1 roll dup 4 1 roll 3 -1 roll
	add exch 4 -1 roll 2 mul 1 add index 2 mul 2 add 2 roll} for pop} def
/addtox1 {1 exch addtox pop} def
/addtox3 {3 exch addtox pop} def
/addtox4 {4 exch addtox pop} def
/polygon { gsave /num exch def moveto num 1 sub {lineto} repeat setstyles } def
/xcarc   { gsave newpath arc setstyles } def
/elb { matrix currentmatrix 7 -1 roll 7 -1 roll translate 5 1 roll 4 -1 roll
	3 index div 1 scale } def
/ele { 0 4 1 roll 0 4 1 roll } bind def
/ellipse { gsave elb newpath ele arc setmatrix setstyles } def
/pellip  { elb ele arc setmatrix } def
/nellip  { elb ele arcn setmatrix } def
/spline  { gsave moveto curveto setstyles } def
/polyc   { {lineto} repeat } bind def
/beginpath { gsave moveto } bind def
/endpath { setstyles } bind def
/bop	 { 1 setlinecap 2 setlinejoin 6 setmiterlimit 0 0 0 scb cRedef
	/clipped 0 def} def
/psinsertion {/PSobj save def /showpage {} def /setpagedevice {pop} def bop
	rotate translate dup scale} def
/end_insert {PSobj restore} def
/setpagemat {/pagemat matrix currentmatrix def} def
/inchscale  {setpagemat 0.375 mul dup scale} def
/cmscale    {setpagemat 0.35433071 mul dup scale} def

%%EndResource
%%EndProlog

/Times-Roman findfont dup length dict begin
{1 index /FID ne {def} {pop pop} ifelse} forall
/Encoding ISOLatin1Encoding def currentdict end
/Times-RomanISO exch definefont pop

/Helvetica findfont dup length dict begin
{1 index /FID ne {def} {pop pop} ifelse} forall
/Encoding ISOLatin1Encoding def currentdict end
/HelveticaISO exch definefont pop

% XCircuit output starts here.

%%BeginSetup

/transistors::transistor {
% hidden
begingate
1 2.000 -32 24 -32 -24 2 polygon
1 1.000 0 32 -32 18 2 polygon
1 1.000 -32 0 -64 0 2 polygon
1 1.000 0 -32 -32 -18 2 polygon
endgate
} def

/generic::arrowhead {
% nonetwork
begingate
8 -28 beginpath
3 -18 3 -15 0 0 curveto
-3 -15 -3 -18 -8 -28 curveto
-2 -26 2 -26 8 -28 curveto
249 
1.000 endpath
endgate
} def

/transistors::npn {
begingate
1.000 0 0 0 transistors::transistor
0.650 /sv 115 0 -32 generic::arrowhead
1.000 0.000 0.000 scb
(C) {/Times-Roman cf} 2 9 0 1.000 0 32 pinlabel
(B) {/Times-Roman cf} 2 7 0 1.000 -64 0 pinlabel
(E) {/Times-Roman cf} 2 13 0 1.000 0 -32 pinlabel
0.180 0.545 0.341 scb
(spice:Q%i %pC %pB %pE npn) {/Times-Roman cf} 2 4 0 1.000 -244 -139 infolabel
(sim:b %pB %pE %pC) {/Times-Roman cf} 2 4 0 1.000 -244 -187 infolabel
endgate
} def

/generic::dot {
% trivial
begingate
248 1.000 0 0 6 0.000 360.000 xcarc
1.000 0.000 0.000 scb
(x) {/Times-Roman cf} 2 29 0 1.000 0 0 pinlabel
endgate
} def

/analog::diode {
begingate
248 1.000 -18 -16 0 16 18 -16 3 polygon
1 1.000 0 -32 0 -16 2 polygon
1 1.000 0 32 0 16 2 polygon
1 1.000 -18 16 18 16 2 polygon
1.000 0.000 0.000 scb
(d.m) {/Times-Roman cf} 2 9 0 1.000 0 32 pinlabel
(d.p) {/Times-Roman cf} 2 13 0 1.000 0 -32 pinlabel
endgate
} def

/euro::com-alt {
begingate
1 1.000 -24 8 24 8 0 -24 -24 8 4 polygon
1 1.000 0 8 0 24 2 polygon
endgate
} def

/transistors::pnp {
begingate
1.000 0 0 0 transistors::transistor
0.650 /sv 245 -32 18 generic::arrowhead
1.000 0.000 0.000 scb
(C) {/Times-Roman cf} 2 13 0 1.000 0 -32 pinlabel
(B) {/Times-Roman cf} 2 7 0 1.000 -64 0 pinlabel
(E) {/Times-Roman cf} 2 9 0 1.000 0 32 pinlabel
0.180 0.545 0.341 scb
(spice:Q%i %pC %pB %pE pnp) {/Times-Roman cf} 2 4 0 1.000 -244 -139 infolabel
endgate
} def

/analog::resistor {
begingate
1 1.000 0 64 0 36 2 polygon
1 1.000 0 -64 0 -36 2 polygon
1 1.000 0 -36 14 -30 -14 -18 14 -6 -14 6 14 18 -14 30 0 36 8 polygon
1.000 0.000 0.000 scb
(r.1) {/Times-Roman cf} 2 9 0 1.000 0 64 pinlabel
(r.2) {/Times-Roman cf} 2 13 0 1.000 0 -64 pinlabel
0.180 0.545 0.341 scb
(spice:R%i %pr.1 %pr.2 1.0K) {/Times-Roman cf} 2 0 0 1.000 -208 -160 infolabel
(sim:r %pr.1 %pr.2) {/Times-Roman cf} 2 0 0 1.000 -208 -208 infolabel
endgate
} def

/transistors::circleTr {
% hidden
begingate
1 1.000 0 0 44 0.000 360.000 xcarc
endgate
} def

/transistors::pnp2 {
begingate
1.000 0 0 0 transistors::transistor
0.650 /sv 245 -32 18 generic::arrowhead
1.000 0 -18 0 transistors::circleTr
1.000 0.000 0.000 scb
(C) {/Times-Roman cf} 2 13 0 1.000 0 -32 pinlabel
(B) {/Times-Roman cf} 2 7 0 1.000 -64 0 pinlabel
(E) {/Times-Roman cf} 2 9 0 1.000 0 32 pinlabel
0.180 0.545 0.341 scb
(spice:Q%i %pC %pB %pE pnp) {/Times-Roman cf} 2 4 0 1.000 -244 -139 infolabel
endgate
} def

/generic::circle {
% trivial
begingate
1 1.000 16 0 6 0.000 360.000 xcarc
1 1.000 0 0 10 0 2 polygon
1.000 0.000 0.000 scb
(out) {/Times-Roman cf} 2 4 0 1.000 16 0 pinlabel
(out) {/Times-Roman cf} 2 7 0 1.000 0 0 pinlabel
endgate
} def

/liec_smi::zener_diode {
begingate
1.000 90 0 0 analog::diode
1 1.000 16 18 24 18 2 polygon
1 1.000 16 -18 8 -18 2 polygon
endgate
} def

/analog::opamp {
begingate
0 1.000 -80 -80 -80 80 80 0 3 polygon
(-) {/Symbol cf} 2 5 0 1.000 -61 42 label
(+) {/Symbol cf} 2 5 0 1.000 -61 -50 label
1.000 0.000 0.000 scb
(in.m) {/Times-Roman cf} 2 7 0 1.000 -80 48 pinlabel
(in.p) {/Times-Roman cf} 2 7 0 1.000 -80 -48 pinlabel
(out) {/Times-Roman cf} 2 4 0 1.000 80 0 pinlabel
endgate
} def

/euro::com {
begingate
1 1.000 -24 -8 24 -8 16 -8 3 polygon
1 1.000 0 -8 0 8 2 polygon
endgate
} def

/generic::tap {
% trivial
<</@in (bus\(0:7\)) /@out (bus\(0\)) >> begingate
496 1.000 0 8 16 0 0 -8 3 polygon
1.000 0.000 0.000 scb
mark @out {/Helvetica cf} ctmk 20 0 1.000 16 0 pinlabel
mark @in {/Helvetica cf} ctmk 23 0 1.000 0 0 pinlabel
endgate
} def


%%EndSetup

%%Page: full 1
%%PageOrientation: Portrait
/pgsave save def bop
1.0000 inchscale
2.6000 setlinewidth 856 994 translate

1.000 0 -160 96 transistors::npn
-1.000 0 -96 96 transistors::npn
1.000 0 96 96 transistors::npn
-1.000 0 160 96 transistors::npn
1 1.000 -160 64 -96 64 2 polygon
1 1.000 96 64 160 64 2 polygon
1 1.000 -32 96 32 160 224 160 224 96 4 polygon
1 1.000 32 96 -32 160 -224 160 -224 96 4 polygon
1 1.000 -160 128 -160 224 160 224 160 128 4 polygon
1 1.000 96 128 96 192 -96 192 -96 128 4 polygon
1 1.000 160 224 160 320 2 polygon
1 1.000 -96 192 -96 320 2 polygon
1.000 0 160 224 generic::dot
1.000 0 -96 192 generic::dot
1 1.000 128 48 128 64 2 polygon
1 1.000 -128 -16 -128 64 2 polygon
1.000 0 -128 64 generic::dot
1.000 0 128 64 generic::dot
1 1.000 -224 160 -288 160 2 polygon
1.000 0 -224 160 generic::dot
1 1.000 224 160 288 160 2 polygon
1.000 0 224 160 generic::dot
4 1.000 -256 256 -256 -32 256 -32 256 256 4 polygon
-1.000 360 -352 96 transistors::npn
1.000 360 352 96 transistors::npn
1 1.000 -352 128 -352 160 -288 160 3 polygon
1 1.000 -288 96 -288 160 2 polygon
1.000 0 -288 160 generic::dot
1 1.000 288 96 288 160 2 polygon
1.000 0 288 160 generic::dot
1 1.000 288 160 352 160 352 128 3 polygon
4 1.000 -272 144 -272 48 -384 48 -384 144 4 polygon
4 1.000 384 144 384 48 272 48 272 144 4 polygon
1 1.000 -352 64 -352 -64 352 -64 352 64 4 polygon
1.000 0 0 -64 generic::dot
-1.000 180 0 -96 analog::diode
-1.000 180 0 -144 analog::diode
1.000 0 0 -192 euro::com-alt
1.000 0 -352 384 transistors::pnp
-1.000 0 352 384 transistors::pnp
1 1.000 352 352 352 160 2 polygon
1.000 0 352 160 generic::dot
1 1.000 -352 352 -352 160 2 polygon
1.000 0 -352 160 generic::dot
1.000 90 0 448 analog::resistor
1 1.000 64 448 352 448 352 416 3 polygon
1.000 0 -448 480 analog::resistor
1.000 0 -448 288 analog::resistor
1 1.000 -448 416 -448 352 2 polygon
1 1.000 -416 384 -448 384 2 polygon
1.000 0 -448 384 generic::dot
1.000 0 448 480 analog::resistor
1.000 0 448 288 analog::resistor
1 1.000 448 416 448 352 2 polygon
1 1.000 416 384 448 384 2 polygon
1.000 0 448 384 generic::dot
-1.000 0 -352 736 transistors::pnp2
1.000 0 352 736 transistors::pnp2
1 1.000 352 704 352 448 2 polygon
1 1.000 -352 704 -352 448 2 polygon
1.000 0 -352 448 generic::dot
1.000 0 352 448 generic::dot
1.000 0 -352 832 analog::resistor
1.000 0 352 832 analog::resistor
1 1.000 448 736 -640 736 2 polygon
1.000 0 -96 672 analog::resistor
1.000 0 160 672 analog::resistor
1.000 0 160 736 generic::dot
1.000 0 -96 736 generic::dot
1 1.000 -96 608 -96 320 2 polygon
1 1.000 160 608 160 320 2 polygon
1 1.000 448 736 448 544 2 polygon
1 1.000 -448 736 -448 544 2 polygon
1.000 0 448 208 euro::com-alt
1.000 0 -128 -288 transistors::npn
-1.000 0 128 -288 transistors::npn
1.000 90 0 -352 analog::resistor
1 1.000 -128 -320 -128 -352 -64 -352 3 polygon
1 1.000 64 -352 128 -352 128 -320 3 polygon
1 1.000 128 48 128 -16 2 polygon
1 1.000 -128 -256 -128 -240 2 polygon
1 1.000 128 -256 128 -240 2 polygon
3 1.000 128 -240 128 -16 2 polygon
3 1.000 -128 -16 -128 -240 2 polygon
1.000 0 -128 -416 transistors::npn
1.000 0 128 -416 transistors::npn
1 1.000 -128 -384 -128 -352 2 polygon
1.000 0 -128 -352 generic::dot
1 1.000 128 -352 128 -384 2 polygon
1.000 0 128 -352 generic::dot
1.000 0 -128 -576 analog::resistor
1.000 0 128 -576 analog::resistor
1.000 0 -480 -576 analog::resistor
1.000 0 -480 -480 transistors::npn
1 1.000 128 -448 128 -512 2 polygon
1 1.000 -128 -448 -128 -512 2 polygon
1 1.000 64 -416 -480 -416 -480 -448 3 polygon
1 1.000 -480 -416 -544 -416 -544 -480 3 polygon
1.000 0 -480 -416 generic::dot
-1.000 0 -544 736 transistors::pnp2
1.000 0 -448 736 generic::dot
1.000 0 -544 832 analog::resistor
1 1.000 -544 704 -544 -384 2 polygon
1 1.000 -544 -384 -544 -416 2 polygon
1.000 0 -544 -416 generic::dot
1 1.000 -480 -640 128 -640 2 polygon
1.000 0 -128 -640 generic::dot
1 1.000 192 -288 320 -288 320 -304 3 polygon
1.000 0 320 -320 euro::com-alt
1 1.000 -192 -288 -288 -288 2 polygon
-1.000 0 -288 -288 generic::circle
-1.000 270 -448 224 generic::circle
5 1.000 256 -224 -256 -224 -256 -352 -576 -352 -576 -672 256 -672 256 -224 7 
polygon
4 1.000 -64 -240 -64 -400 64 -400 64 -240 4 polygon
-1.000 90 -640 816 liec_smi::zener_diode
1 1.000 -640 736 -640 784 2 polygon
1.000 0 -640 608 analog::resistor
1 1.000 -640 736 -640 672 2 polygon
1 1.000 -640 848 -640 896 352 896 3 polygon
1.000 0 -352 896 generic::dot
1.000 0 -544 896 generic::dot
1 1.000 -640 544 -640 -736 128 -736 128 -640 4 polygon
1.000 0 128 -640 generic::dot
1.000 0 720 496 analog::opamp
1.000 90 784 608 analog::resistor
1 1.000 656 608 160 608 2 polygon
1.000 0 160 608 generic::dot
1 1.000 848 608 864 608 864 496 800 496 4 polygon
1.000 90 784 384 analog::resistor
1 1.000 640 544 592 544 592 608 3 polygon
1.000 0 592 608 generic::dot
1 1.000 560 448 560 576 -96 576 3 polygon
1.000 0 -96 576 generic::dot
1.000 0 560 448 generic::dot
1.000 0 896 352 euro::com-alt
1.000 0 880 608 generic::circle
1 1.000 880 608 864 608 2 polygon
1 1.000 896 368 896 384 848 384 3 polygon
1.000 0 864 608 generic::dot
4 1.000 -320 432 -320 336 -416 336 -416 432 4 polygon
4 1.000 416 432 416 336 320 336 320 432 4 polygon
1.000 0 -640 736 generic::dot
-1.000 180 -640 928 euro::com
1 1.000 -640 928 -640 896 2 polygon
1.000 0 -640 896 generic::dot
1 1.000 -640 -768 -640 -736 2 polygon
1.000 0 -640 -768 euro::com
1.000 0 -640 -736 generic::dot
(+15) {/Times-Roman cf} 2 17 0 0.700 -640 944 label
(-15) {/Times-Roman cf} 2 29 0 0.700 -640 -784 label
{Ss} (500) {/Times-Roman cf} 3 20 0 0.700 -464 -576 label
{Ss} (500) {/Times-Roman cf} 3 20 0 0.700 -112 -576 label
{Ss} (500) {/Times-Roman cf} 3 20 0 0.700 144 -576 label
(MC1496) {/Helvetica cf} 2 20 0 0.600 -576 -688 label
(3096) {CR} (CA) {/Helvetica cf} 4 23 0 0.600 -272 16 label
(MC1496) {/Helvetica cf} 2 20 0 0.600 -256 -48 label
(3096) {CR} (CA) {/Helvetica cf} 4 20 360 0.600 272 16 label
(3096) {CR} (CA) {/Helvetica cf} 4 20 360 0.600 -416 304 label
(3096) {CR} (CA) {/Helvetica cf} 4 23 0 0.600 416 304 label
(1N4148) {CR} (2\327) {/HelveticaISO cf} 4 20 0 0.600 32 -128 label
(10k) {/Times-RomanISO cf} 2 20 0 0.700 -512 832 label
(10k) {/Times-RomanISO cf} 2 20 0 0.700 -320 832 label
(10k) {/Times-RomanISO cf} 2 20 0 0.700 384 832 label
(10k) {/Times-RomanISO cf} 2 23 0 0.700 -480 480 label
(10k) {/Times-RomanISO cf} 2 23 0 0.700 -480 288 label
(10k) {/Times-RomanISO cf} 2 20 0 0.700 480 288 label
(10k) {/Times-RomanISO cf} 2 20 0 0.700 480 480 label
(1k) {/Times-RomanISO cf} 2 23 0 0.700 -128 672 label
(1k) {/Times-RomanISO cf} 2 20 0 0.700 192 672 label
(4k7) {/Times-RomanISO cf} 2 20 0 0.700 -624 608 label
(6v8) {/Times-RomanISO cf} 2 20 0 0.700 -624 864 label
(GX) {ss} (R) {/Times-RomanISO cf} 4 21 0 0.700 0 480 label
(GY) {ss} (R) {/Times-RomanISO cf} 4 21 0 0.700 0 -320 label
0.000 0.000 1.000 scb
(B) {ss} (V) {/Times-RomanISO cf} 4 17 0 0.700 -96 752 label
3 1.000 -344 664 -336 640 -336 608 -328 680 spline
-1.000 180 -336 592 generic::arrowhead
(BX) {ss} (I) {/Times-RomanISO cf} 4 20 0 0.700 -320 640 label
3 1.000 344 664 336 640 336 608 328 680 spline
1.000 180 336 592 generic::arrowhead
(BX) {ss} (I) {/Times-RomanISO cf} 4 23 0 0.700 320 640 label
3 1.000 -26 505 1 493 31 499 -40 488 spline
1.000 90 48 496 generic::arrowhead
(X) {ss} (I) {/Times-RomanISO cf} 4 17 0 0.700 0 512 label
-1.000 180 -336 240 generic::arrowhead
3 1.000 -344 312 -336 288 -336 256 -328 328 spline
(X) {ss} (-I) {ns} (BX) {ss} (I) {/Times-RomanISO cf} 8 20 0 0.700 -320 304 
label
3 1.000 344 312 336 288 336 256 328 328 spline
1.000 180 336 240 generic::arrowhead
(X) {ss} (+I) {ns} (BX) {ss} (I) {/Times-RomanISO cf} 8 23 0 0.700 320 304 
label
1.000 180 -142 -224 generic::arrowhead
3 1.000 -134 -152 -142 -176 -142 -208 -150 -136 spline
-1.000 180 144 -224 generic::arrowhead
3 1.000 136 -152 144 -176 144 -208 152 -136 spline
(Y) {ss} (+I) {ns} (BY) {ss} (I) {/Times-RomanISO cf} 8 23 0 0.700 -160 -176 
label
(Y) {ss} (-I) {ns} {ns} (BY) {ss} (I) {/Times-RomanISO cf} 9 20 0 0.700 160 
-176 label
1.000 90 48 -304 generic::arrowhead
3 1.000 -26 -295 1 -307 31 -301 -40 -312 spline
(Y) {ss} (I) {/Times-RomanISO cf} 4 17 0 0.700 0 -288 label
3 1.000 -120 -472 -112 -496 -112 -528 -104 -456 spline
-1.000 180 -112 -544 generic::arrowhead
(BY) {ss} (I) {/Times-RomanISO cf} 4 20 0 0.700 -96 -496 label
3 1.000 120 -472 112 -496 112 -528 104 -456 spline
1.000 180 112 -544 generic::arrowhead
(BY) {ss} (I) {/Times-RomanISO cf} 4 23 0 0.700 96 -496 label
3 1.000 -472 -472 -464 -496 -464 -528 -456 -456 spline
-1.000 180 -464 -544 generic::arrowhead
(BY) {ss} (I) {/Times-RomanISO cf} 4 20 0 0.700 -448 -496 label
1.000 180 148 464 generic::arrowhead
3 1.000 156 536 148 512 148 480 140 552 spline
(ON) {ss} (I) {/Times-RomanISO cf} 4 20 0 0.700 176 512 label
(OP) {ss} (I) {/Times-RomanISO cf} 4 23 0 0.700 -112 512 label
-1.000 180 -80 464 generic::arrowhead
3 1.000 -88 536 -80 512 -80 480 -72 552 spline
sce
(Q1) {/Times-RomanISO cf} 2 23 0 0.700 -336 96 label
(Q2) {/Times-RomanISO cf} 2 20 0 0.700 -176 96 label
(Q3) {/Times-RomanISO cf} 2 23 0 0.700 -80 96 label
(Q4) {/Times-RomanISO cf} 2 20 0 0.700 80 96 label
(Q5) {/Times-RomanISO cf} 2 23 0 0.700 176 96 label
(Q6) {/Times-RomanISO cf} 2 20 0 0.700 336 96 label
0.000 0.000 1.000 scb
(X) {ss} (V) {/Times-RomanISO cf} 4 21 0 0.700 -448 176 label
(Y) {ss} (V) {/Times-RomanISO cf} 4 21 0 0.700 -352 -288 label
(O) {ss} (V) {/Times-RomanISO cf} 4 21 0 0.700 928 608 label
sce
(10k) {/Times-RomanISO cf} 2 21 0 0.700 784 640 label
(9k1) {/Times-RomanISO cf} 2 21 0 0.700 784 352 label
1.000 0.000 0.000 scb
(6) {/HelveticaISO cf} 2 21 0 0.500 192 240 label
(12) {/HelveticaISO cf} 2 21 0 0.500 64 240 label
(8) {/HelveticaISO cf} 2 21 0 0.500 -240 176 label
(10) {/HelveticaISO cf} 2 21 0 0.500 240 176 label
(4) {/HelveticaISO cf} 2 21 0 0.500 -240 -272 label
(1) {/HelveticaISO cf} 2 21 0 0.500 240 -272 label
(3) {/HelveticaISO cf} 2 21 0 0.500 -80 -336 label
(2) {/HelveticaISO cf} 2 21 0 0.500 80 -336 label
(5) {/HelveticaISO cf} 2 21 0 0.500 -528 -368 label
(14) {/HelveticaISO cf} 2 21 0 0.500 160 -656 label
(1) {/HelveticaISO cf} 2 21 0 0.500 -304 128 label
(3) {/HelveticaISO cf} 2 21 0 0.500 -368 128 label
(2) {/HelveticaISO cf} 2 21 0 0.500 -368 64 label
(6) {/HelveticaISO cf} 2 21 0 0.500 368 128 label
(5) {/HelveticaISO cf} 2 21 0 0.500 304 128 label
(4) {/HelveticaISO cf} 2 21 0 0.500 368 64 label
(10) {/HelveticaISO cf} 2 21 0 0.500 336 416 label
(12) {/HelveticaISO cf} 2 21 0 0.500 336 352 label
(11) {/HelveticaISO cf} 2 21 0 0.500 400 400 label
(13) {/HelveticaISO cf} 2 21 0 0.500 -336 416 label
(15) {/HelveticaISO cf} 2 21 0 0.500 -336 352 label
(14) {/HelveticaISO cf} 2 21 0 0.500 -400 400 label
sce
(LM7171) {/HelveticaISO cf} 2 21 0 0.700 784 448 label
1 1.000 720 608 656 608 2 polygon
1 1.000 704 544 704 896 352 896 3 polygon
1.000 0 352 896 generic::dot
1 1.000 704 448 704 -736 128 -736 3 polygon
1.000 0 128 -736 generic::dot
1.000 0.000 0.000 scb
(7) {/HelveticaISO cf} 2 21 0 0.500 704 528 label
(4) {/HelveticaISO cf} 2 21 0 0.500 704 464 label
(6) {/HelveticaISO cf} 2 21 0 0.500 768 496 label
(2) {/HelveticaISO cf} 2 21 0 0.500 624 560 label
(3) {/HelveticaISO cf} 2 21 0 0.500 624 432 label
sce
(\(pin 16\) to -15V) {CR} (Connect substrate of CA3096) {CR} 
(Additional connections:) {/HelveticaISO cf} 6 19 0 0.700 688 -720 label
1.000 90 0 784 analog::resistor
1 1.000 -64 784 -352 784 2 polygon
1.000 0 -352 784 generic::dot
1 1.000 64 784 352 784 2 polygon
1.000 0 352 784 generic::dot
1.000 90 0 816 generic::tap
1 1.000 0 816 0 896 2 polygon
1.000 0 0 896 generic::dot
(100k) {/Times-Roman cf} 2 21 0 0.700 48 816 label
1 1.000 -352 416 -352 448 2 polygon
1 1.000 -64 448 -352 448 2 polygon
-1.000 90 0 416 generic::tap
1 1.000 0 416 0 400 -64 400 -64 448 4 polygon
1.000 0 -64 448 generic::dot
1.000 90 624 384 analog::resistor
1 1.000 560 448 640 448 2 polygon
-1.000 90 624 352 generic::tap
1 1.000 624 352 624 336 560 336 560 384 4 polygon
1 1.000 560 448 560 384 2 polygon
1.000 0 560 384 generic::dot
1 1.000 688 384 720 384 2 polygon
(2k) {/Times-Roman cf} 2 21 0 0.700 656 352 label
1.000 90 32 624 analog::resistor
1.000 90 32 656 generic::tap
1 1.000 32 656 32 736 2 polygon
1.000 0 32 736 generic::dot
(10k) {/Times-Roman cf} 2 21 0 0.700 80 656 label
1 1.000 160 624 80 624 2 polygon
1 1.000 -32 624 -96 624 2 polygon
1.000 0 -96 624 generic::dot
1.000 0 160 624 generic::dot
pgsave restore showpage

%%Trailer
XCIRCsave restore
%%EOF
