%!PS-Adobe-3.0 EPSF-3.0
%%Title: diagram.eps
%%Creator: XCircuit v3.9 rev26
%%CreationDate: Thu Dec 25 15:44:42 2014
%%Pages: 1
%%BoundingBox: 68 68 519 583
%%DocumentNeededResources: font Times-Roman Times-Bold Times-Italic 
%%+ font Times-ItalicISO Symbol 
%%EndComments
%%BeginProlog
%
%  PostScript prolog for output from xcircuit
%  Version: 3.8
%
%  Electrical circuit (and otherwise general) drawing program
%
%  Written by Tim Edwards 8/5/93--11/1/10  (tim.edwards@multigig.com)
%  The Johns Hopkins University (1993-2004)
%  MultiGiG, Inc. (2004-2012)
%
%%BeginResource: procset XCIRCproc 3.8 0
%
% supporting definitions --- these are the primary xcircuit types.

/XCIRCsave save def
/topmat matrix currentmatrix def

/fontslant { /slant exch def [1 0 slant 1 0 0] 
    exch findfont exch makefont dup length dict /ndict exch def
    { 1 index /FID ne { ndict 3 1 roll put } { pop pop } ifelse } forall
    ndict definefont pop} def
/ul { dup type /stringtype eq showflag 1 eq and { gsave 
   currentpoint topmat setmatrix 0 0 moveto 2 index stringwidth pop (_)
   false charpath flattenpath pathbbox grestore exch pop 1 index
   sub setlinewidth exch pop currentpoint 3 -1 roll add moveto 0
   rlineto stroke moveto } if } def
/ol { dup type /stringtype eq showflag 1 eq and { gsave gsave
   currentpoint topmat setmatrix 2 index stringwidth pop 3 index
   true charpath flattenpath pathbbox grestore exch pop
   exch pop topmat setmatrix (_) true charpath pathbbox grestore
   exch pop 1 index sub setlinewidth exch pop currentpoint
   exch 4 1 roll exch sub add moveto pop 0 rlineto stroke
   moveto } if } def
/stW { gsave currentpoint newpath moveto true charpath flattenpath
	pathbbox pop exch pop sub grestore } def
/Ts {mark Tabs aload pop counttomark 1 add array astore /Tabs exch def Tabs
	0 currentpoint pop put} def
/Tbn {mark Tabs aload pop counttomark dup 2 add 1 roll cleartomark 1 sub} def
/Tb { 0 1 Tbn {Tabs exch get dup currentpoint pop lt
	{currentpoint exch pop moveto exit} {pop} ifelse } for } def
/Tf { Tbn -1 0 {Tabs exch get dup currentpoint pop gt
	{currentpoint exch pop moveto exit} {pop} ifelse } for } def
/qS { (aa) stW (a a) stW sub 4 div 0 Kn } def
/hS { qS qS } def
/pspc 0 def
/cf0 { scalefont setfont } bind def
/Kn { dup kY add /kY exch def rmoveto } bind def
/ss { /fscale fscale 0.67 mul def currentfont 0.67 cf0 0 fscale0 fscale mul
	0.33 mul neg Kn} def
/Ss { /fscale fscale 0.67 mul def currentfont 0.67 cf0 0 fscale0 fscale mul
	0.67 mul Kn } def
/ns { 0 kY neg Kn /kY 0 def /fscale 1.0 def xfont0 1.0 cf0 } def
/MR { /twidth exch def } def
/CR { ns 0 /Bline Bline fscale0 neg add def Bline moveto } def
/cf { dup type /realtype ne {1.0} if exch findfont exch kY 0 eq
	{ 40 mul dup /fscale0 exch def cf0 /xfont0 currentfont def}
	{fscale0 mul fscale mul cf0} ifelse } def
/ctmk { counttomark dup 2 add -1 roll pop } bind def
/label { gsave translate 0 0 moveto dup scale neg
	/rotval exch def /twidth 100000 def /just exch def just 384 and
	0 gt {/mshow {pop} def} {/mshow {show} def} ifelse just 16 and 0
	gt {gsave rotval rotate 0 1 dtransform gsave pagemat setmatrix
	idtransform exch grestore 1 0 dtransform gsave pagemat setmatrix
	idtransform exch grestore dup abs 1e-9 lt {pop mul 0 gt} {3 1 roll
	pop pop 0 lt} ifelse grestore {-1 /rotval rotval neg def /just just
	dup 3 and 1 ne {3 xor} if def} {1} ifelse exch -1e-9 lt {-1 /rotval
	rotval neg def /just just dup 12 and 4 ne {12 xor} if def} {1}
	ifelse scale } if /showflag 0 def /fspc pspc def /Bline 0 def /Tabs
	0 array def /fscale 1.0 def /kY 0 def gsave dup 1 add copy dup
	1 0 dtransform exch atan rotate {exch dup type /stringtype eq {gsave
        dup gsave newpath 0 0 moveto true charpath flattenpath pathbbox pop
	exch pop exch pop grestore currentpoint pop add twidth
	ge {grestore CR exch 1 add dup 2 add {CR} exch 1 roll exch} {grestore}
	ifelse true charpath flattenpath} {dup type /arraytype eq {exec} {12
	string cvs true charpath flattenpath} ifelse} ifelse} repeat exch pop
	pathbbox grestore 3 -1 roll pop 3 1 roll just 1 and 0 gt {just 2 and
	0 gt {exch pop neg fspc sub} {exch sub 0.5 mul neg} ifelse} {pop neg
	fspc add} ifelse exch Bline exch just 4 and 0 gt {just 8 and 0 gt
	{exch pop neg fspc sub} {add 0.5 mul neg} ifelse} {pop neg fspc add}
	ifelse rotval rotate Kn currentpoint translate /showflag 1 def /Bline
	0 def /Tabs 0 array def /fscale 1.0 def /kY 0 def {dup type
	/stringtype eq {mshow} {dup type /arraytype eq {exec} {12 string cvs
	mshow} ifelse} ifelse} repeat grestore endclip} def
/pinlabel { 4 index 32 and 0 ne hlevel 0 eq or { /pspc 10 def label
	/pspc 0 def } { pop pop pop pop pop {pop} repeat } ifelse } def
/pinglobal { pinlabel } def
/infolabel { pinlabel } def
/graphic { gsave 4 index cvx exec /DataSource get resetfile translate 0 0
	moveto neg rotate dup scale cvx exec image grestore endclip} def

/scb { setrgbcolor } bind def  /sce { defColor aload pop scb } bind def
/cRedef {/defColor currentcolor 3 array astore def} def
/begingate {dup type /dicttype ne {1 dict} if begin	% default params
	dup type /dicttype ne {1 dict} if begin		% instanced params
	/hlevel hlevel 1 add def /defColor currentcolor sce 3 array astore
	def gsave sce translate 0 0 moveto neg rotate dup type /nametype
	eq not { dup abs currentlinewidth exch div setlinewidth } { pop }
	ifelse dup abs scale clipped 1 and 1 eq {/clipped clipped 1 add def}
	if} bind def
/endgate { /hlevel hlevel 1 sub def grestore defColor aload pop cRedef
	scb end end endclip} bind def

/hlevel 0 def
/endclip {clipped 1 and 1 eq {grestore /clipped clipped 1 sub def} if} def
/tmpa [1 0 0 1 0 0] def
/gar {8 8 true tmpa {<c0 c0 00 00 0c 0c 00 00>} imagemask} bind
{8 8 true tmpa {<30 70 60 02 03 07 06 20>} imagemask} bind
{8 8 true tmpa {<0c 1e 1e 0c c0 e1 e1 c0>} imagemask} bind
{8 8 true tmpa {<0f 0f 0f 0f f0 f0 f0 f0>} imagemask} bind
{8 8 true tmpa {<3f f3 e1 e1 f3 3f 1e 1e>} imagemask} bind
{8 8 true tmpa {<df cf 8f 9f fd fc f8 f9>} imagemask} bind
{8 8 true tmpa {<ff 3f 3f ff ff f3 f3 ff>} imagemask} bind 7 array astore def
/ppaint { gsave clip tmpa dup setmatrix pathbbox neg exch neg 4 2 roll
  neg 4 -1 roll 2 copy gt {exch} if 8 div ceiling 8 mul 4 2 roll neg 2 copy
  gt {exch} if 8 div ceiling 8 mul 3 -1 roll -8 5 -1 roll
  { 3 index exch 5 exch put dup -8 3 index { 3 index
  exch 4 exch put 3 index exec } for } for pop pop pop pop grestore } bind def
/setstyles {
  currentlinewidth mul setlinewidth /style exch def style 2048 and 0 gt
  clipped 1 and 0 eq and {clip newpath /clipped clipped 1 add def} {
  style 1 and 0 gt not {closepath} if
  style 1024 and 0 gt {2 setlinecap 0 setlinejoin} if
  style 2 and 0 gt {currentlinewidth 4 mul dup 2 array astore 0 setdash} if
  style 4 and 0 gt {0.5 currentlinewidth 4 mul 2 array astore 0 setdash} if
  gsave style 16 and 0 gt { style 224 and -5 bitshift style 256 and 0 gt {
  7 exch sub 8 div dup 1 exch sub currentrgbcolor 3 array astore
  {3 copy mul add 4 1 roll pop} forall pop pop setrgbcolor eofill}
  {dup 7 lt {gar exch get ppaint} {pop eofill} ifelse} ifelse}
  {style 256 and 0 gt {1 setgray eofill} if} ifelse grestore style 8 and 0 gt 
  style 512 eq or {newpath} {stroke} ifelse grestore endclip} ifelse} def     

/addtoy {exch dup dup 2 mul 3 add 1 roll -1 1 { 4 1 roll dup 4 1 roll add
	4 -1 roll 2 mul 1 add index 2 mul 2 add 2 roll} for pop} def
/addtoy1 {1 exch addtoy pop} def
/addtoy3 {3 exch addtoy pop} def
/addtoy4 {4 exch addtoy pop} def
/addtox {exch dup dup 2 mul 3 add 1 roll -1 1 { 4 1 roll dup 4 1 roll 3 -1 roll
	add exch 4 -1 roll 2 mul 1 add index 2 mul 2 add 2 roll} for pop} def
/addtox1 {1 exch addtox pop} def
/addtox3 {3 exch addtox pop} def
/addtox4 {4 exch addtox pop} def
/polygon { gsave /num exch def moveto num 1 sub {lineto} repeat setstyles } def
/xcarc   { gsave newpath arc setstyles } def
/elb { matrix currentmatrix 7 -1 roll 7 -1 roll translate 5 1 roll 4 -1 roll
	3 index div 1 scale } def
/ele { 0 4 1 roll 0 4 1 roll } bind def
/ellipse { gsave elb newpath ele arc setmatrix setstyles } def
/pellip  { elb ele arc setmatrix } def
/nellip  { elb ele arcn setmatrix } def
/spline  { gsave moveto curveto setstyles } def
/polyc   { {lineto} repeat } bind def
/beginpath { gsave moveto } bind def
/endpath { setstyles } bind def
/bop	 { 1 setlinecap 2 setlinejoin 6 setmiterlimit 0 0 0 scb cRedef
	/clipped 0 def} def
/psinsertion {/PSobj save def /showpage {} def /setpagedevice {pop} def bop
	rotate translate dup scale} def
/end_insert {PSobj restore} def
/setpagemat {/pagemat matrix currentmatrix def} def
/inchscale  {setpagemat 0.375 mul dup scale} def
/cmscale    {setpagemat 0.35433071 mul dup scale} def

%%EndResource
%%EndProlog

/Times-Italic findfont dup length dict begin
{1 index /FID ne {def} {pop pop} ifelse} forall
/Encoding ISOLatin1Encoding def currentdict end
/Times-ItalicISO exch definefont pop

% XCircuit output starts here.

%%BeginSetup

/transistors::transistor {
% hidden
begingate
1 2.000 -32 24 -32 -24 2 polygon
1 1.000 0 32 -32 18 2 polygon
1 1.000 -32 0 -64 0 2 polygon
1 1.000 0 -32 -32 -18 2 polygon
endgate
} def

/generic::arrowhead {
% nonetwork
begingate
8 -28 beginpath
3 -18 3 -15 0 0 curveto
-3 -15 -3 -18 -8 -28 curveto
-2 -26 2 -26 8 -28 curveto
249 
1.000 endpath
endgate
} def

/transistors::npn {
begingate
1.000 0 0 0 transistors::transistor
0.650 /sv 115 0 -32 generic::arrowhead
1.000 0.000 0.000 scb
(C) {/Times-Roman cf} 2 9 0 1.000 0 32 pinlabel
(B) {/Times-Roman cf} 2 7 0 1.000 -64 0 pinlabel
(E) {/Times-Roman cf} 2 13 0 1.000 0 -32 pinlabel
0.180 0.545 0.341 scb
(spice:Q%i %pC %pB %pE npn) {/Times-Roman cf} 2 4 0 1.000 -244 -139 infolabel
(sim:b %pB %pE %pC) {/Times-Roman cf} 2 4 0 1.000 -244 -187 infolabel
endgate
} def

/analog::diode {
begingate
248 1.000 -18 -16 0 16 18 -16 3 polygon
1 1.000 0 -32 0 -16 2 polygon
1 1.000 0 32 0 16 2 polygon
1 1.000 -18 16 18 16 2 polygon
1.000 0.000 0.000 scb
(d.m) {/Times-Roman cf} 2 9 0 1.000 0 32 pinlabel
(d.p) {/Times-Roman cf} 2 13 0 1.000 0 -32 pinlabel
endgate
} def

/transistors::circleTr {
% hidden
begingate
1 1.000 0 0 44 0.000 360.000 xcarc
endgate
} def

/transistors::npn2 {
begingate
1.000 0 0 0 transistors::transistor
0.650 /sv 115 0 -32 generic::arrowhead
1.000 0 -18 0 transistors::circleTr
1.000 0.000 0.000 scb
(C) {/Times-Roman cf} 2 9 0 1.000 0 32 pinlabel
(B) {/Times-Roman cf} 2 7 0 1.000 -64 0 pinlabel
(E) {/Times-Roman cf} 2 13 0 1.000 0 -32 pinlabel
0.180 0.545 0.341 scb
(spice:Q%i %pC %pB %pE npn) {/Times-Roman cf} 2 4 0 1.000 -244 -139 infolabel
(sim:b %pB %pE %pC) {/Times-Roman cf} 2 4 0 1.000 -244 -187 infolabel
endgate
} def

/generic::dot {
% trivial
begingate
248 1.000 0 0 6 0.000 360.000 xcarc
1.000 0.000 0.000 scb
(x) {/Times-Roman cf} 2 29 0 1.000 0 0 pinlabel
endgate
} def

/analog::resistor {
begingate
1 1.000 0 64 0 36 2 polygon
1 1.000 0 -64 0 -36 2 polygon
1 1.000 0 -36 14 -30 -14 -18 14 -6 -14 6 14 18 -14 30 0 36 8 polygon
1.000 0.000 0.000 scb
(r.1) {/Times-Roman cf} 2 9 0 1.000 0 64 pinlabel
(r.2) {/Times-Roman cf} 2 13 0 1.000 0 -64 pinlabel
0.180 0.545 0.341 scb
(spice:R%i %pr.1 %pr.2 1.0K) {/Times-Roman cf} 2 0 0 1.000 -208 -160 infolabel
(sim:r %pr.1 %pr.2) {/Times-Roman cf} 2 0 0 1.000 -208 -208 infolabel
endgate
} def

/transistors::pnp2 {
begingate
1.000 0 0 0 transistors::transistor
0.650 /sv 245 -32 18 generic::arrowhead
1.000 0 -18 0 transistors::circleTr
1.000 0.000 0.000 scb
(C) {/Times-Roman cf} 2 13 0 1.000 0 -32 pinlabel
(B) {/Times-Roman cf} 2 7 0 1.000 -64 0 pinlabel
(E) {/Times-Roman cf} 2 9 0 1.000 0 32 pinlabel
0.180 0.545 0.341 scb
(spice:Q%i %pC %pB %pE pnp) {/Times-Roman cf} 2 4 0 1.000 -244 -139 infolabel
endgate
} def

/generic::arrow {
% nonetwork
begingate
1 0.800 0 -40 0 20 2 polygon
1.000 0 0 40 generic::arrowhead
endgate
} def

/liec_smi::opamp {
begingate
0 1.000 -80 -80 -80 80 80 0 3 polygon
(-) {/Symbol cf} 2 5 0 1.000 -61 50 label
(+) {/Symbol cf} 2 5 0 1.000 -61 -46 label
1.000 0.000 0.000 scb
(in.m) {/Times-Roman cf} 2 7 0 1.000 -80 48 pinlabel
(in.p) {/Times-Roman cf} 2 7 0 1.000 -80 -48 pinlabel
(out) {/Times-Roman cf} 2 4 0 1.000 80 0 pinlabel
endgate
} def

/generic::jumper {
% trivial
begingate
1 1.000 0 0 10 -90.000 90.000 xcarc
1 1.000 0 10 0 16 2 polygon
1 1.000 0 -10 0 -16 2 polygon
1.000 0.000 0.000 scb
(a) {/Times-Roman cf} 2 1 0 1.000 0 16 pinlabel
(a) {/Times-Roman cf} 2 13 0 1.000 0 -16 pinlabel
endgate
} def

/euro::com {
begingate
1 1.000 -24 -8 24 -8 16 -8 3 polygon
1 1.000 0 -8 0 8 2 polygon
endgate
} def

/analog::source {
% hidden
begingate
1 1.000 0 0 32 0.000 360.000 xcarc
1 1.000 0 32 0 64 2 polygon
1 1.000 0 -32 0 -64 2 polygon
endgate
} def

/analog::vsource {
begingate
1.000 0 0 0 analog::source
(+) {/Symbol cf} 2 5 0 1.000 0 14 label
(-) {/Symbol cf} 2 5 0 1.000 0 -22 label
1.000 0.000 0.000 scb
(v.p) {/Times-Roman cf} 2 9 0 1.000 0 64 pinlabel
(v.m) {/Times-Roman cf} 2 13 0 1.000 0 -64 pinlabel
endgate
} def

/generic::circle {
% trivial
begingate
1 1.000 16 0 6 0.000 360.000 xcarc
1 1.000 0 0 10 0 2 polygon
1.000 0.000 0.000 scb
(out) {/Times-Roman cf} 2 4 0 1.000 16 0 pinlabel
(out) {/Times-Roman cf} 2 7 0 1.000 0 0 pinlabel
endgate
} def

/euro::com-alt {
begingate
1 1.000 -24 8 24 8 0 -24 -24 8 4 polygon
1 1.000 0 8 0 24 2 polygon
endgate
} def


%%EndSetup

%%Page: 1 1
%%PageOrientation: Portrait
/pgsave save def bop
1.0000 inchscale
2.6000 setlinewidth 1104 616 translate

1.000 0 -352 32 transistors::npn
1.000 0 -256 80 transistors::npn
-1.000 180 -432 192 analog::diode
1.000 0 -256 256 transistors::npn2
1 1.000 -352 80 -352 64 2 polygon
1 1.000 -320 80 -352 80 2 polygon
1.000 0 -352 80 generic::dot
1 1.000 -256 112 -256 224 2 polygon
1 1.000 -432 224 -432 256 -320 256 3 polygon
1.000 0 -256 448 analog::resistor
1.000 0 -432 448 transistors::pnp2
1 1.000 -256 384 -256 288 2 polygon
1 1.000 -432 416 -432 256 2 polygon
1.000 0 -432 256 generic::dot
1.000 0 -432 816 analog::resistor
1.000 60 -432 816 generic::arrow
1.000 0 -592 448 liec_smi::opamp
1 1.000 -512 448 -496 448 2 polygon
1.000 0 -432 640 analog::resistor
1.000 90 -528 560 analog::resistor
1 1.000 -432 576 -432 480 2 polygon
1 1.000 -464 560 -432 560 2 polygon
1.000 0 -432 560 generic::dot
1.000 90 -528 720 analog::resistor
1 1.000 -432 752 -432 704 2 polygon
1 1.000 -464 720 -432 720 2 polygon
1.000 0 -432 720 generic::dot
1.000 0 -720 560 generic::jumper
1 1.000 -736 560 -592 560 2 polygon
1 1.000 -688 560 -688 496 -672 496 3 polygon
1.000 0 -688 560 generic::dot
1 1.000 -672 400 -720 400 -720 544 3 polygon
1 1.000 -720 720 -592 720 2 polygon
1 1.000 -720 720 -720 576 2 polygon
-1.000 180 -432 896 euro::com
1 1.000 -432 896 -432 880 2 polygon
-1.000 180 -256 528 euro::com
1 1.000 -256 528 -256 512 2 polygon
1.000 90 -800 560 analog::resistor
1.000 90 -800 400 analog::resistor
1 1.000 -736 400 -720 400 2 polygon
1.000 0 -720 400 generic::dot
1.000 0 -880 480 analog::vsource
1 1.000 -864 400 -880 400 -880 416 3 polygon
1 1.000 -880 544 -880 560 -864 560 3 polygon
1.000 0 80 256 liec_smi::opamp
1.000 90 -144 384 analog::resistor
1.000 90 64 384 analog::resistor
1 1.000 -208 384 -256 384 2 polygon
1 1.000 -80 384 0 384 2 polygon
1.000 0 -64 480 analog::resistor
1.000 90 64 128 analog::resistor
1.000 0 -64 384 generic::jumper
1 1.000 -64 400 -64 416 2 polygon
1 1.000 -64 368 -64 128 0 128 3 polygon
1 1.000 0 208 -64 208 2 polygon
1 1.000 0 304 -32 304 -32 384 3 polygon
1.000 0 -32 384 generic::dot
1 1.000 128 384 192 384 192 256 160 256 4 polygon
1 1.000 -64 544 -64 752 -80 752 -432 752 4 polygon
1.000 0 -432 752 generic::dot
1.000 0 -64 208 generic::dot
1 1.000 128 128 224 128 2 polygon
1 1.000 192 256 224 256 2 polygon
1.000 0 192 256 generic::dot
1.000 360 224 256 generic::circle
1.000 360 224 128 generic::circle
1.000 0 -880 336 euro::com-alt
3 1.000 -880 400 -880 352 2 polygon
3 1.000 192 128 192 80 2 polygon
1.000 0 192 64 euro::com-alt
1.000 0 192 128 generic::dot
1.000 0 -880 400 generic::dot
1 1.000 -352 80 -432 80 -432 32 3 polygon
1 1.000 -432 80 -432 160 2 polygon
1.000 0 -432 80 generic::dot
1.000 90 -688 -176 analog::resistor
1.000 0 -608 -256 analog::resistor
1 1.000 -608 -176 -608 -192 2 polygon
1.000 0 -608 -176 generic::dot
1 1.000 -608 -320 -608 -336 2 polygon
1.000 0 -608 -336 generic::dot
1.000 0 -752 -256 analog::vsource
1 1.000 -752 -320 -752 -336 2 polygon
1 1.000 -752 -176 -752 -192 2 polygon
3 1.000 -752 -336 -752 -384 2 polygon
1.000 0 -752 -400 euro::com-alt
1.000 0 -752 -336 generic::dot
1.000 0 -256 384 generic::dot
2 1.000 -208 320 -208 144 -512 144 -512 320 4 polygon
(compensator) {CR} (Early) {/Times-Roman cf} 4 21 0 0.700 -336 352 label
1 1.000 -416 32 -432 32 2 polygon
3 1.000 -208 144 -176 144 -176 -16 3 polygon
3 1.000 -432 -16 -512 -16 -512 144 3 polygon
(core) {CR} (Multiplier) {/Times-Roman cf} 4 21 0 0.700 -368 112 label
(CC) {ss} (V) {/Times-Roman cf} 4 17 0 0.700 -432 912 label
(Q1) {/Times-Bold cf} 2 20 0 0.700 -368 32 label
(Q2) {/Times-Bold cf} 2 20 0 0.700 -272 80 label
(D1) {/Times-Bold cf} 2 20 0 0.700 -400 192 label
(Q5) {/Times-Bold cf} 2 20 0 0.700 -272 256 label
(Q6) {/Times-Bold cf} 2 20 0 0.700 -448 448 label
(A1) {/Times-Bold cf} 2 20 0 0.700 -608 512 label
(A2) {/Times-Bold cf} 2 20 0 0.700 64 320 label
(1M) {/Times-Roman cf} 2 21 0 0.700 -800 592 label
(1M) {/Times-Roman cf} 2 21 0 0.700 -800 368 label
(1M) {/Times-Roman cf} 2 21 0 0.700 -528 592 label
(1M) {/Times-Roman cf} 2 21 0 0.700 -528 752 label
(1M) {/Times-Roman cf} 2 21 0 0.700 -32 480 label
(1M) {/Times-Roman cf} 2 21 0 0.700 -144 416 label
(10M) {/Times-Roman cf} 2 21 0 0.700 64 416 label
(10M) {/Times-Roman cf} 2 21 0 0.700 64 160 label
(R2=1k) {/Times-Roman cf} 2 20 0 0.700 -400 640 label
(1k) {/Times-Roman cf} (\273) {/Symbol cf} (R1) {/Times-Roman cf} 6 20 0 0.700 
-400 816 label
(R3=1k) {/Times-Roman cf} 2 20 0 0.700 -224 464 label
(20k) {/Times-Roman cf} 2 17 0 0.700 -688 -160 label
(10) {/Times-Roman cf} 2 23 0 0.700 -624 -256 label
(A) {ss} (V) {/Times-Italic cf} 4 20 0 0.700 -848 448 label
(B) {ss} (V) {/Times-Italic cf} 4 20 0 0.700 -720 -288 label
0.000 0.000 1.000 scb
(B1) {ss} (V) {/Times-ItalicISO cf} 4 21 0 0.700 -384 -48 label
(A) {ss} (I) {/Times-ItalicISO cf} 4 20 0 0.700 -384 528 label
1.000 180 -400 512 generic::arrowhead
1.000 180 -448 96 generic::arrowhead
(A) {ss} (I) {/Times-ItalicISO cf} 4 23 0 0.700 -464 112 label
sce
1.000 0 -464 -128 liec_smi::opamp
1 1.000 -384 -128 -352 -128 -352 0 3 polygon
3 1.000 -432 -16 -176 -16 2 polygon
1 1.000 -352 -32 -576 -32 -576 -80 -544 -80 4 polygon
1.000 0 -352 -32 generic::dot
1 1.000 -640 -176 -544 -176 2 polygon
1 1.000 -752 -336 -256 -336 -256 48 3 polygon
(A3) {/Times-Bold cf} 2 20 0 0.700 -480 -64 label
0.000 0.000 1.000 scb
(BE1) {ss} (V) {/Times-ItalicISO cf} 4 23 0 0.700 -400 16 label
(BE2) {ss} (V) {/Times-ItalicISO cf} 4 21 0 0.700 -304 48 label
1.000 180 -240 112 generic::arrowhead
(C) {ss} (I) {/Times-ItalicISO cf} 4 20 0 0.700 -224 128 label
1.000 180 -224 496 generic::arrowhead
(C) {ss} (I) {/Times-ItalicISO cf} 4 20 0 0.700 -208 512 label
sce
(CC) {ss} (V) {/Times-Roman cf} 4 17 0 0.700 -256 544 label
0.000 0.000 1.000 scb
(Acomp) {ss} (V) {/Times-ItalicISO cf} 4 16 0 0.700 -400 768 label
(C) {ss} (V) {/Times-ItalicISO cf} 4 21 0 0.700 -208 368 label
(OUT) {ss} (V) {/Times-ItalicISO cf} 4 21 0 0.700 240 192 label
pgsave restore showpage

%%Trailer
XCIRCsave restore
%%EOF
