%!PS-Adobe-3.0 EPSF-3.0
%%Title: multiplier-step7.eps
%%Creator: XCircuit v3.9 rev26
%%CreationDate: Sat Dec 27 15:20:20 2014
%%Pages: 1
%%BoundingBox: 68 68 585 430
%%DocumentNeededResources: font Times-Roman Times-RomanISO Symbol 
%%EndComments
%%BeginProlog
%
%  PostScript prolog for output from xcircuit
%  Version: 3.8
%
%  Electrical circuit (and otherwise general) drawing program
%
%  Written by Tim Edwards 8/5/93--11/1/10  (tim.edwards@multigig.com)
%  The Johns Hopkins University (1993-2004)
%  MultiGiG, Inc. (2004-2012)
%
%%BeginResource: procset XCIRCproc 3.8 0
%
% supporting definitions --- these are the primary xcircuit types.

/XCIRCsave save def
/topmat matrix currentmatrix def

/fontslant { /slant exch def [1 0 slant 1 0 0] 
    exch findfont exch makefont dup length dict /ndict exch def
    { 1 index /FID ne { ndict 3 1 roll put } { pop pop } ifelse } forall
    ndict definefont pop} def
/ul { dup type /stringtype eq showflag 1 eq and { gsave 
   currentpoint topmat setmatrix 0 0 moveto 2 index stringwidth pop (_)
   false charpath flattenpath pathbbox grestore exch pop 1 index
   sub setlinewidth exch pop currentpoint 3 -1 roll add moveto 0
   rlineto stroke moveto } if } def
/ol { dup type /stringtype eq showflag 1 eq and { gsave gsave
   currentpoint topmat setmatrix 2 index stringwidth pop 3 index
   true charpath flattenpath pathbbox grestore exch pop
   exch pop topmat setmatrix (_) true charpath pathbbox grestore
   exch pop 1 index sub setlinewidth exch pop currentpoint
   exch 4 1 roll exch sub add moveto pop 0 rlineto stroke
   moveto } if } def
/stW { gsave currentpoint newpath moveto true charpath flattenpath
	pathbbox pop exch pop sub grestore } def
/Ts {mark Tabs aload pop counttomark 1 add array astore /Tabs exch def Tabs
	0 currentpoint pop put} def
/Tbn {mark Tabs aload pop counttomark dup 2 add 1 roll cleartomark 1 sub} def
/Tb { 0 1 Tbn {Tabs exch get dup currentpoint pop lt
	{currentpoint exch pop moveto exit} {pop} ifelse } for } def
/Tf { Tbn -1 0 {Tabs exch get dup currentpoint pop gt
	{currentpoint exch pop moveto exit} {pop} ifelse } for } def
/qS { (aa) stW (a a) stW sub 4 div 0 Kn } def
/hS { qS qS } def
/pspc 0 def
/cf0 { scalefont setfont } bind def
/Kn { dup kY add /kY exch def rmoveto } bind def
/ss { /fscale fscale 0.67 mul def currentfont 0.67 cf0 0 fscale0 fscale mul
	0.33 mul neg Kn} def
/Ss { /fscale fscale 0.67 mul def currentfont 0.67 cf0 0 fscale0 fscale mul
	0.67 mul Kn } def
/ns { 0 kY neg Kn /kY 0 def /fscale 1.0 def xfont0 1.0 cf0 } def
/MR { /twidth exch def } def
/CR { ns 0 /Bline Bline fscale0 neg add def Bline moveto } def
/cf { dup type /realtype ne {1.0} if exch findfont exch kY 0 eq
	{ 40 mul dup /fscale0 exch def cf0 /xfont0 currentfont def}
	{fscale0 mul fscale mul cf0} ifelse } def
/ctmk { counttomark dup 2 add -1 roll pop } bind def
/label { gsave translate 0 0 moveto dup scale neg
	/rotval exch def /twidth 100000 def /just exch def just 384 and
	0 gt {/mshow {pop} def} {/mshow {show} def} ifelse just 16 and 0
	gt {gsave rotval rotate 0 1 dtransform gsave pagemat setmatrix
	idtransform exch grestore 1 0 dtransform gsave pagemat setmatrix
	idtransform exch grestore dup abs 1e-9 lt {pop mul 0 gt} {3 1 roll
	pop pop 0 lt} ifelse grestore {-1 /rotval rotval neg def /just just
	dup 3 and 1 ne {3 xor} if def} {1} ifelse exch -1e-9 lt {-1 /rotval
	rotval neg def /just just dup 12 and 4 ne {12 xor} if def} {1}
	ifelse scale } if /showflag 0 def /fspc pspc def /Bline 0 def /Tabs
	0 array def /fscale 1.0 def /kY 0 def gsave dup 1 add copy dup
	1 0 dtransform exch atan rotate {exch dup type /stringtype eq {gsave
        dup gsave newpath 0 0 moveto true charpath flattenpath pathbbox pop
	exch pop exch pop grestore currentpoint pop add twidth
	ge {grestore CR exch 1 add dup 2 add {CR} exch 1 roll exch} {grestore}
	ifelse true charpath flattenpath} {dup type /arraytype eq {exec} {12
	string cvs true charpath flattenpath} ifelse} ifelse} repeat exch pop
	pathbbox grestore 3 -1 roll pop 3 1 roll just 1 and 0 gt {just 2 and
	0 gt {exch pop neg fspc sub} {exch sub 0.5 mul neg} ifelse} {pop neg
	fspc add} ifelse exch Bline exch just 4 and 0 gt {just 8 and 0 gt
	{exch pop neg fspc sub} {add 0.5 mul neg} ifelse} {pop neg fspc add}
	ifelse rotval rotate Kn currentpoint translate /showflag 1 def /Bline
	0 def /Tabs 0 array def /fscale 1.0 def /kY 0 def {dup type
	/stringtype eq {mshow} {dup type /arraytype eq {exec} {12 string cvs
	mshow} ifelse} ifelse} repeat grestore endclip} def
/pinlabel { 4 index 32 and 0 ne hlevel 0 eq or { /pspc 10 def label
	/pspc 0 def } { pop pop pop pop pop {pop} repeat } ifelse } def
/pinglobal { pinlabel } def
/infolabel { pinlabel } def
/graphic { gsave 4 index cvx exec /DataSource get resetfile translate 0 0
	moveto neg rotate dup scale cvx exec image grestore endclip} def

/scb { setrgbcolor } bind def  /sce { defColor aload pop scb } bind def
/cRedef {/defColor currentcolor 3 array astore def} def
/begingate {dup type /dicttype ne {1 dict} if begin	% default params
	dup type /dicttype ne {1 dict} if begin		% instanced params
	/hlevel hlevel 1 add def /defColor currentcolor sce 3 array astore
	def gsave sce translate 0 0 moveto neg rotate dup type /nametype
	eq not { dup abs currentlinewidth exch div setlinewidth } { pop }
	ifelse dup abs scale clipped 1 and 1 eq {/clipped clipped 1 add def}
	if} bind def
/endgate { /hlevel hlevel 1 sub def grestore defColor aload pop cRedef
	scb end end endclip} bind def

/hlevel 0 def
/endclip {clipped 1 and 1 eq {grestore /clipped clipped 1 sub def} if} def
/tmpa [1 0 0 1 0 0] def
/gar {8 8 true tmpa {<c0 c0 00 00 0c 0c 00 00>} imagemask} bind
{8 8 true tmpa {<30 70 60 02 03 07 06 20>} imagemask} bind
{8 8 true tmpa {<0c 1e 1e 0c c0 e1 e1 c0>} imagemask} bind
{8 8 true tmpa {<0f 0f 0f 0f f0 f0 f0 f0>} imagemask} bind
{8 8 true tmpa {<3f f3 e1 e1 f3 3f 1e 1e>} imagemask} bind
{8 8 true tmpa {<df cf 8f 9f fd fc f8 f9>} imagemask} bind
{8 8 true tmpa {<ff 3f 3f ff ff f3 f3 ff>} imagemask} bind 7 array astore def
/ppaint { gsave clip tmpa dup setmatrix pathbbox neg exch neg 4 2 roll
  neg 4 -1 roll 2 copy gt {exch} if 8 div ceiling 8 mul 4 2 roll neg 2 copy
  gt {exch} if 8 div ceiling 8 mul 3 -1 roll -8 5 -1 roll
  { 3 index exch 5 exch put dup -8 3 index { 3 index
  exch 4 exch put 3 index exec } for } for pop pop pop pop grestore } bind def
/setstyles {
  currentlinewidth mul setlinewidth /style exch def style 2048 and 0 gt
  clipped 1 and 0 eq and {clip newpath /clipped clipped 1 add def} {
  style 1 and 0 gt not {closepath} if
  style 1024 and 0 gt {2 setlinecap 0 setlinejoin} if
  style 2 and 0 gt {currentlinewidth 4 mul dup 2 array astore 0 setdash} if
  style 4 and 0 gt {0.5 currentlinewidth 4 mul 2 array astore 0 setdash} if
  gsave style 16 and 0 gt { style 224 and -5 bitshift style 256 and 0 gt {
  7 exch sub 8 div dup 1 exch sub currentrgbcolor 3 array astore
  {3 copy mul add 4 1 roll pop} forall pop pop setrgbcolor eofill}
  {dup 7 lt {gar exch get ppaint} {pop eofill} ifelse} ifelse}
  {style 256 and 0 gt {1 setgray eofill} if} ifelse grestore style 8 and 0 gt 
  style 512 eq or {newpath} {stroke} ifelse grestore endclip} ifelse} def     

/addtoy {exch dup dup 2 mul 3 add 1 roll -1 1 { 4 1 roll dup 4 1 roll add
	4 -1 roll 2 mul 1 add index 2 mul 2 add 2 roll} for pop} def
/addtoy1 {1 exch addtoy pop} def
/addtoy3 {3 exch addtoy pop} def
/addtoy4 {4 exch addtoy pop} def
/addtox {exch dup dup 2 mul 3 add 1 roll -1 1 { 4 1 roll dup 4 1 roll 3 -1 roll
	add exch 4 -1 roll 2 mul 1 add index 2 mul 2 add 2 roll} for pop} def
/addtox1 {1 exch addtox pop} def
/addtox3 {3 exch addtox pop} def
/addtox4 {4 exch addtox pop} def
/polygon { gsave /num exch def moveto num 1 sub {lineto} repeat setstyles } def
/xcarc   { gsave newpath arc setstyles } def
/elb { matrix currentmatrix 7 -1 roll 7 -1 roll translate 5 1 roll 4 -1 roll
	3 index div 1 scale } def
/ele { 0 4 1 roll 0 4 1 roll } bind def
/ellipse { gsave elb newpath ele arc setmatrix setstyles } def
/pellip  { elb ele arc setmatrix } def
/nellip  { elb ele arcn setmatrix } def
/spline  { gsave moveto curveto setstyles } def
/polyc   { {lineto} repeat } bind def
/beginpath { gsave moveto } bind def
/endpath { setstyles } bind def
/bop	 { 1 setlinecap 2 setlinejoin 6 setmiterlimit 0 0 0 scb cRedef
	/clipped 0 def} def
/psinsertion {/PSobj save def /showpage {} def /setpagedevice {pop} def bop
	rotate translate dup scale} def
/end_insert {PSobj restore} def
/setpagemat {/pagemat matrix currentmatrix def} def
/inchscale  {setpagemat 0.375 mul dup scale} def
/cmscale    {setpagemat 0.35433071 mul dup scale} def

%%EndResource
%%EndProlog

/Times-Roman findfont dup length dict begin
{1 index /FID ne {def} {pop pop} ifelse} forall
/Encoding ISOLatin1Encoding def currentdict end
/Times-RomanISO exch definefont pop

% XCircuit output starts here.

%%BeginSetup

/transistors::transistor {
% hidden
begingate
1 2.000 -32 24 -32 -24 2 polygon
1 1.000 0 32 -32 18 2 polygon
1 1.000 -32 0 -64 0 2 polygon
1 1.000 0 -32 -32 -18 2 polygon
endgate
} def

/generic::arrowhead {
% nonetwork
begingate
8 -28 beginpath
3 -18 3 -15 0 0 curveto
-3 -15 -3 -18 -8 -28 curveto
-2 -26 2 -26 8 -28 curveto
249 
1.000 endpath
endgate
} def

/transistors::npn {
begingate
1.000 0 0 0 transistors::transistor
0.650 /sv 115 0 -32 generic::arrowhead
1.000 0.000 0.000 scb
(C) {/Times-Roman cf} 2 9 0 1.000 0 32 pinlabel
(B) {/Times-Roman cf} 2 7 0 1.000 -64 0 pinlabel
(E) {/Times-Roman cf} 2 13 0 1.000 0 -32 pinlabel
0.180 0.545 0.341 scb
(spice:Q%i %pC %pB %pE npn) {/Times-Roman cf} 2 4 0 1.000 -244 -139 infolabel
(sim:b %pB %pE %pC) {/Times-Roman cf} 2 4 0 1.000 -244 -187 infolabel
endgate
} def

/generic::dot {
% trivial
begingate
248 1.000 0 0 6 0.000 360.000 xcarc
1.000 0.000 0.000 scb
(x) {/Times-Roman cf} 2 29 0 1.000 0 0 pinlabel
endgate
} def

/analog::source {
% hidden
begingate
1 1.000 0 0 32 0.000 360.000 xcarc
1 1.000 0 32 0 64 2 polygon
1 1.000 0 -32 0 -64 2 polygon
endgate
} def

/analog::vsource {
begingate
1.000 0 0 0 analog::source
(+) {/Symbol cf} 2 5 0 1.000 0 14 label
(-) {/Symbol cf} 2 5 0 1.000 0 -22 label
1.000 0.000 0.000 scb
(v.p) {/Times-Roman cf} 2 9 0 1.000 0 64 pinlabel
(v.m) {/Times-Roman cf} 2 13 0 1.000 0 -64 pinlabel
endgate
} def

/analog::resistor {
begingate
1 1.000 0 64 0 36 2 polygon
1 1.000 0 -64 0 -36 2 polygon
1 1.000 0 -36 14 -30 -14 -18 14 -6 -14 6 14 18 -14 30 0 36 8 polygon
1.000 0.000 0.000 scb
(r.1) {/Times-Roman cf} 2 9 0 1.000 0 64 pinlabel
(r.2) {/Times-Roman cf} 2 13 0 1.000 0 -64 pinlabel
0.180 0.545 0.341 scb
(spice:R%i %pr.1 %pr.2 1.0K) {/Times-Roman cf} 2 0 0 1.000 -208 -160 infolabel
(sim:r %pr.1 %pr.2) {/Times-Roman cf} 2 0 0 1.000 -208 -208 infolabel
endgate
} def

/euro::com-alt {
begingate
1 1.000 -24 8 24 8 0 -24 -24 8 4 polygon
1 1.000 0 8 0 24 2 polygon
endgate
} def

/generic::jumper {
% trivial
begingate
1 1.000 0 0 10 -90.000 90.000 xcarc
1 1.000 0 10 0 16 2 polygon
1 1.000 0 -10 0 -16 2 polygon
1.000 0.000 0.000 scb
(a) {/Times-Roman cf} 2 1 0 1.000 0 16 pinlabel
(a) {/Times-Roman cf} 2 13 0 1.000 0 -16 pinlabel
endgate
} def

/generic::circle {
% trivial
begingate
1 1.000 16 0 6 0.000 360.000 xcarc
1 1.000 0 0 10 0 2 polygon
1.000 0.000 0.000 scb
(out) {/Times-Roman cf} 2 4 0 1.000 16 0 pinlabel
(out) {/Times-Roman cf} 2 7 0 1.000 0 0 pinlabel
endgate
} def

/analog::diode {
begingate
248 1.000 -18 -16 0 16 18 -16 3 polygon
1 1.000 0 -48 0 -16 2 polygon
1 1.000 0 48 0 16 2 polygon
1 1.000 -18 16 18 16 2 polygon
1.000 0.000 0.000 scb
(d.m) {/Times-Roman cf} 2 9 0 1.000 0 48 pinlabel
(d.p) {/Times-Roman cf} 2 13 0 1.000 0 -48 pinlabel
endgate
} def

/liec_smi::zener_diode {
begingate
1.000 90 0 0 analog::diode
1 1.000 16 18 24 18 2 polygon
1 1.000 16 -18 8 -18 2 polygon
endgate
} def

/generic::arrow {
% nonetwork
begingate
1 0.800 0 -40 0 20 2 polygon
1.000 0 0 40 generic::arrowhead
endgate
} def

/transistors::mosfet {
% hidden
begingate
1 1.000 0 -32 0 -20 -24 -20 3 polygon
1 2.000 -24 -24 -24 -16 2 polygon
1 2.000 -24 -8 -24 8 2 polygon
1 2.000 -24 16 -24 24 2 polygon
1 1.000 -24 20 0 20 0 32 3 polygon
1 1.000 -64 -16 -36 -16 -36 16 3 polygon
1 1.000 -24 0 0 0 0 -20 3 polygon
endgate
} def

/transistors::mosfet_p {
begingate
1.000 0 0 0 transistors::mosfet
0.650 /sv 90 0 0 generic::arrowhead
1.000 0.000 0.000 scb
(G) {/Times-Roman cf} 2 7 0 1.000 -64 -16 pinlabel
(D) {/Times-Roman cf} 2 13 0 1.000 0 -32 pinlabel
(S) {/Times-Roman cf} 2 9 0 1.000 0 32 pinlabel
0.180 0.545 0.341 scb
(spice:M%i %pD %pG %pS GND nmos) {/Times-Roman cf} 2 4 0 1.000 -244 -139 
infolabel
(sim:n %pG %pS %pD) {/Times-Roman cf} 2 4 0 1.000 -244 -187 infolabel
endgate
} def


%%EndSetup

%%Page: multiplier-step1 1
%%PageOrientation: Portrait
/pgsave save def bop
1.0000 inchscale
2.6000 setlinewidth 1008 568 translate

-1.000 0 -256 -16 transistors::npn
1.000 0 -64 -16 transistors::npn
1 1.000 -256 16 -256 48 -160 48 -160 -16 4 polygon
1.000 0 -160 -16 generic::dot
1.000 0 -784 480 analog::vsource
1.000 0 -256 48 generic::dot
3 1.000 -16 432 -32 368 -32 304 -64 416 spline
-1.000 180 -32 288 generic::arrowhead
(a) {ss} (v) {ns} (m) {ss} (-g) {ns} (B) {ss} (GV) {/Times-Roman cf} 12 21 0 
0.700 -64 448 label
1 1.000 -144 -16 -192 -16 2 polygon
1 1.000 -144 -16 -128 -16 2 polygon
1.000 0 -64 320 analog::resistor
1 1.000 -256 400 -64 400 2 polygon
1 1.000 -64 400 -64 384 2 polygon
1 1.000 -64 80 -64 16 2 polygon
1.000 0 96 -16 transistors::npn
1 1.000 32 -16 -96 -16 2 polygon
1.000 0 96 320 analog::resistor
1 1.000 96 384 96 400 -64 400 3 polygon
1.000 0 -64 400 generic::dot
3 1.000 144 432 128 368 128 304 96 416 spline
-1.000 180 128 288 generic::arrowhead
(B) {ss} (GV) {/Times-Roman cf} 4 21 0 0.700 96 448 label
1 1.000 -256 80 -256 16 2 polygon
1.000 0 96 32 generic::dot
1.000 0 -64 240 generic::dot
(3) {ss} (R) {/Times-Roman cf} 4 21 0 0.700 -96 368 label
(3) {ss} (R) {/Times-Roman cf} 4 21 0 0.700 64 368 label
1.000 0 -608 128 analog::vsource
(B) {ss} (V) {/Times-Roman cf} 4 20 0 0.700 -592 176 label
1.000 0 -784 400 euro::com-alt
1.000 0 -608 48 euro::com-alt
1.000 0 -256 -80 euro::com-alt
1.000 0 96 -80 euro::com-alt
1 1.000 96 -48 96 -64 2 polygon
1 1.000 -256 -48 -256 -64 2 polygon
1.000 0 -448 -256 analog::vsource
(A) {ss} (V) {/Times-Roman cf} 4 20 0 0.700 -416 -224 label
1.000 90 -352 -192 analog::resistor
1.000 180 -256 -256 analog::resistor
1 1.000 -256 -192 -288 -192 2 polygon
1 1.000 -416 -192 -448 -192 2 polygon
1 1.000 -256 -320 -448 -320 2 polygon
1.000 0 -448 -352 euro::com-alt
1 1.000 -448 -320 -448 -336 2 polygon
1.000 0 -448 -320 generic::dot
(2) {ss} (R) {/Times-Roman cf} 4 16 0 0.700 -240 -224 label
(1) {ss} (R) {/Times-Roman cf} 4 21 0 0.700 -352 -160 label
(-) {/Times-Roman cf} 2 21 0 0.700 -160 -160 label
1 1.000 -176 -128 -176 -224 -96 -176 -176 -128 4 polygon
(+) {/Times-Roman cf} 2 21 0 0.700 -160 -192 label
1 1.000 -96 -176 -64 -176 -64 -48 3 polygon
1 1.000 -176 -192 -256 -192 2 polygon
1.000 0 -256 -192 generic::dot
1 1.000 -176 -160 -208 -160 -208 -112 -64 -112 4 polygon
1.000 0 -64 -112 generic::dot
(a) {ss} (v) {/Times-Roman cf} 4 16 0 0.700 -48 -176 label
1.000 0 -256 304 analog::resistor
1 1.000 -256 368 -256 400 2 polygon
1 1.000 -256 240 -256 144 2 polygon
1.000 90 -384 240 analog::resistor
1.000 90 -384 368 analog::resistor
1.000 90 -544 368 analog::resistor
1.000 90 -544 240 analog::resistor
1 1.000 -432 176 -432 80 -352 128 -432 176 4 polygon
(+) {/Times-Roman cf} 2 21 0 0.700 -416 112 label
(-) {/Times-Roman cf} 2 21 0 0.700 -416 144 label
1 1.000 -480 368 -448 368 2 polygon
1 1.000 -448 240 -480 240 2 polygon
1 1.000 -432 144 -448 144 -448 240 3 polygon
1.000 0 -448 240 generic::dot
1.000 0 -480 240 generic::jumper
1 1.000 -480 224 -480 112 -432 112 3 polygon
1 1.000 -480 256 -480 368 2 polygon
1.000 0 -480 368 generic::dot
1 1.000 -320 368 -256 368 2 polygon
1.000 0 -256 368 generic::dot
1 1.000 -272 240 -256 240 2 polygon
1.000 0 -256 240 generic::dot
1.000 0 -608 304 euro::com-alt
1 1.000 -608 368 -608 368 -608 320 3 polygon
1 1.000 -608 192 -608 240 2 polygon
1 1.000 -64 256 -64 80 2 polygon
1 1.000 -320 240 -272 240 2 polygon
1.000 0 -256 400 generic::dot
(4) {ss} (R) {/Times-Roman cf} 4 21 0 0.700 -224 352 label
(1M) {/Times-Roman cf} 2 21 0 0.700 -384 336 label
(1M) {/Times-Roman cf} 2 21 0 0.700 -544 336 label
(1M) {/Times-Roman cf} 2 21 0 0.700 -544 272 label
(1M) {/Times-Roman cf} 2 21 0 0.700 -384 272 label
(4) {ss} (G=1/R) {/Times-Roman cf} 4 21 0 0.700 -208 448 label
1.000 90 176 240 analog::resistor
1.000 90 160 32 analog::resistor
1 1.000 272 96 272 192 352 144 272 96 4 polygon
(+) {/Times-Roman cf} 2 21 0 0.700 288 160 label
(-) {/Times-Roman cf} 2 21 0 0.700 288 128 label
1.000 90 352 32 analog::resistor
1 1.000 288 32 224 32 2 polygon
1 1.000 256 32 256 128 272 128 3 polygon
1.000 0 256 32 generic::dot
1 1.000 352 144 416 144 448 144 448 32 416 32 5 polygon
1 1.000 96 32 96 224 2 polygon
1 1.000 96 32 96 16 2 polygon
1.000 0 96 240 generic::jumper
1 1.000 112 240 -64 240 2 polygon
1 1.000 240 240 256 240 256 160 272 160 4 polygon
1.000 90 352 240 analog::resistor
1 1.000 288 240 256 240 2 polygon
1.000 0 256 240 generic::dot
1.000 0 448 208 euro::com-alt
1 1.000 448 224 448 240 416 240 3 polygon
1.000 0 464 144 generic::circle
1 1.000 464 144 448 144 2 polygon
1.000 0 448 144 generic::dot
(out) {ss} (V) {/Times-Roman cf} 4 20 0 0.700 496 144 label
(5) {ss} (R) {/Times-Roman cf} 4 21 0 0.700 176 272 label
{ns} (6) {ss} (R) {/Times-Roman cf} 5 21 0 0.700 352 272 label
(5) {ss} (R) {/Times-Roman cf} 4 21 0 0.700 160 64 label
(6) {ss} (R) {/Times-Roman cf} 4 21 0 0.700 352 64 label
1 1.000 -256 400 -672 400 -672 352 3 polygon
1.000 270 -672 304 liec_smi::zener_diode
1.000 0 -672 224 euro::com-alt
1 1.000 -672 256 -672 240 2 polygon
(6.8V) {/Times-Roman cf} 2 23 0 0.700 -704 304 label
1.000 0 -672 480 analog::resistor
1 1.000 -672 416 -672 400 2 polygon
1 1.000 -784 544 -784 560 -672 560 -672 544 4 polygon
1.000 0 -672 400 generic::dot
(330) {/Times-Roman cf} 2 20 0 0.700 -640 496 label
(1k) {/Times-Roman cf} 2 21 0 0.700 -96 336 label
(1k) {/Times-Roman cf} 2 21 0 0.700 64 336 label
(1k) {/Times-Roman cf} 2 21 0 0.700 -224 320 label
(\275W) {/Times-RomanISO cf} 2 20 0 0.700 -640 464 label
(15V) {CR} (10V-) {/Times-Roman cf} 4 21 0 0.700 -720 432 label
1.000 90 -640 560 generic::arrow
1.000 0 -672 560 generic::dot
(To op-amps) {/Times-Roman cf} 2 20 0 0.700 -592 560 label
-1.000 180 -256 112 transistors::mosfet_p
1 1.000 -320 128 -352 128 2 polygon
pgsave restore showpage

%%Trailer
XCIRCsave restore
%%EOF
